%YAML 1.1
%TAG !u! tag:unity3d.com,2011:
--- !u!1001 &100100000
Prefab:
  m_ObjectHideFlags: 1
  serializedVersion: 2
  m_Modification:
    m_TransformParent: {fileID: 0}
    m_Modifications: []
    m_RemovedComponents: []
  m_ParentPrefab: {fileID: 0}
  m_RootGameObject: {fileID: 1000012866342382}
  m_IsPrefabParent: 1
--- !u!1 &1000012866342382
GameObject:
  m_ObjectHideFlags: 0
  m_PrefabParentObject: {fileID: 0}
  m_PrefabInternal: {fileID: 100100000}
  serializedVersion: 4
  m_Component:
  - 4: {fileID: 4000012538321888}
  - 212: {fileID: 212000013173917648}
  - 61: {fileID: 61000012984531528}
  - 114: {fileID: 114000013533150778}
  - 50: {fileID: 50000010934200144}
  - 61: {fileID: 61000012028666818}
  m_Layer: 0
  m_Name: Block3
  m_TagString: Finish
  m_Icon: {fileID: 0}
  m_NavMeshLayer: 0
  m_StaticEditorFlags: 0
  m_IsActive: 1
--- !u!4 &4000012538321888
Transform:
  m_ObjectHideFlags: 1
  m_PrefabParentObject: {fileID: 0}
  m_PrefabInternal: {fileID: 100100000}
  m_GameObject: {fileID: 1000012866342382}
  m_LocalRotation: {x: 0, y: 0, z: 0, w: 1}
  m_LocalPosition: {x: 0.04, y: 1.56, z: 0}
  m_LocalScale: {x: 1, y: 1, z: 1}
  m_LocalEulerAnglesHint: {x: 0, y: 0, z: 0}
  m_Children: []
  m_Father: {fileID: 0}
  m_RootOrder: 0
--- !u!50 &50000010934200144
Rigidbody2D:
  serializedVersion: 2
  m_ObjectHideFlags: 1
  m_PrefabParentObject: {fileID: 0}
  m_PrefabInternal: {fileID: 100100000}
  m_GameObject: {fileID: 1000012866342382}
  m_UseAutoMass: 0
  m_Mass: 0.0001
  m_LinearDrag: 0
  m_AngularDrag: 0
  m_GravityScale: 0.01
  m_IsKinematic: 0
  m_Interpolate: 0
  m_SleepingMode: 1
  m_CollisionDetection: 0
  m_Constraints: 4
--- !u!61 &61000012028666818
BoxCollider2D:
  m_ObjectHideFlags: 1
  m_PrefabParentObject: {fileID: 0}
  m_PrefabInternal: {fileID: 100100000}
  m_GameObject: {fileID: 1000012866342382}
  m_Enabled: 1
  m_Density: 1
  m_Material: {fileID: 0}
  m_IsTrigger: 0
  m_UsedByEffector: 0
  m_Offset: {x: 0, y: 0.01334548}
  serializedVersion: 2
  m_Size: {x: 0.33, y: 0.7433085}
--- !u!61 &61000012984531528
BoxCollider2D:
  m_ObjectHideFlags: 1
  m_PrefabParentObject: {fileID: 0}
  m_PrefabInternal: {fileID: 100100000}
  m_GameObject: {fileID: 1000012866342382}
  m_Enabled: 1
  m_Density: 1
  m_Material: {fileID: 0}
  m_IsTrigger: 0
  m_UsedByEffector: 0
  m_Offset: {x: 0, y: -0.1973674}
  serializedVersion: 2
  m_Size: {x: 1.12, y: 0.3233542}
--- !u!114 &114000013533150778
MonoBehaviour:
  m_ObjectHideFlags: 1
  m_PrefabParentObject: {fileID: 0}
  m_PrefabInternal: {fileID: 100100000}
  m_GameObject: {fileID: 1000012866342382}
  m_Enabled: 1
  m_EditorHideFlags: 0
  m_Script: {fileID: 11500000, guid: bb95294a69d764bb9afa51823c83ea18, type: 3}
  m_Name: 
  m_EditorClassIdentifier: 
  player: {fileID: 4000012538321888}
  location: {fileID: 4000014253003678, guid: 2712cd861fa404b08bc3b52339f50a5b, type: 2}
  prefab:
  - {fileID: 1000013864057612, guid: 9ee580dee17a44c509c8318112a68c53, type: 2}
  - {fileID: 1000012866342382}
  - {fileID: 1000012932864742, guid: 49cb9d2cba59e424cbe0c344e73806b2, type: 2}
  - {fileID: 1000010555621588, guid: 816128efd52674b5da7684069ff19f3c, type: 2}
  - {fileID: 1000012493339162, guid: 82377d6409b0b496d917406c7a00c421, type: 2}
  prefab1:
  - {fileID: 1000013864057612, guid: 9ee580dee17a44c509c8318112a68c53, type: 2}
  - {fileID: 1000012866342382}
  - {fileID: 1000012932864742, guid: 49cb9d2cba59e424cbe0c344e73806b2, type: 2}
  - {fileID: 1000010555621588, guid: 816128efd52674b5da7684069ff19f3c, type: 2}
  - {fileID: 1000012493339162, guid: 82377d6409b0b496d917406c7a00c421, type: 2}
--- !u!212 &212000013173917648
SpriteRenderer:
  m_ObjectHideFlags: 1
  m_PrefabParentObject: {fileID: 0}
  m_PrefabInternal: {fileID: 100100000}
  m_GameObject: {fileID: 1000012866342382}
  m_Enabled: 1
  m_CastShadows: 0
  m_ReceiveShadows: 0
  m_MotionVectors: 1
  m_LightProbeUsage: 0
  m_ReflectionProbeUsage: 0
  m_Materials:
  - {fileID: 10754, guid: 0000000000000000f000000000000000, type: 0}
  m_SubsetIndices: 
  m_StaticBatchRoot: {fileID: 0}
  m_ProbeAnchor: {fileID: 0}
  m_LightProbeVolumeOverride: {fileID: 0}
  m_ScaleInLightmap: 1
  m_PreserveUVs: 0
  m_IgnoreNormalsForChartDetection: 0
  m_ImportantGI: 0
  m_SelectedWireframeHidden: 1
  m_MinimumChartSize: 4
  m_AutoUVMaxDistance: 0.5
  m_AutoUVMaxAngle: 89
  m_LightmapParameters: {fileID: 0}
  m_SortingLayerID: 0
  m_SortingOrder: 0
  m_Sprite: {fileID: 21300000, guid: ef26200fdab4942bfb746900ac11a4f1, type: 3}
  m_Color: {r: 1, g: 1, b: 1, a: 1}
  m_FlipX: 0
  m_FlipY: 0
